<?xml version="1.0" encoding="utf-8"?>
<!-- Generator: Adobe Illustrator 16.0.0, SVG Export Plug-In . SVG Version: 6.00 Build 0)  -->
<!DOCTYPE svg PUBLIC "-//W3C//DTD SVG 1.1//EN" "http://www.w3.org/Graphics/SVG/1.1/DTD/svg11.dtd">
<svg version="1.1" id="Layer_1" xmlns="http://www.w3.org/2000/svg" xmlns:xlink="http://www.w3.org/1999/xlink" x="0px" y="0px"
	 width="20.855px" height="34.444px" viewBox="0 0 20.855 34.444" enable-background="new 0 0 20.855 34.444" xml:space="preserve">
<g>
	<path fill="#00AA95" d="M0.235,0C0.156,0,0.084,0,0.021,0v4.108c2.016,0,1.99,0,1.99,0c0,0.907,0.025,13.201,0.025,13.201v3.684
		v0.541h4.394V6.872C3.519,3.738,1.28,1.138,0.235,0z"/>
	<path fill="#00AA95" d="M14.695,20.521c1.176-0.457,2.172-1.033,2.996-1.727c-0.998-1.072-1.99-2.139-2.967-3.188
		c-0.951,1.086-2.328,1.635-4.138,1.635H10.33v4.32c1.881,0.896,3.2,2.387,3.936,4.484c0.572,1.631,0.859,3.994,0.859,7.094
		c0,0.832,0.063,1.018,0.189,1.305h4.158v-3.975c-0.098-2.135-0.416-3.922-0.955-5.357C17.721,23.168,16.447,21.637,14.695,20.521z"
		/>
</g>
<path fill="#5FBBA6" d="M10.921,0c0,0-8.683,0-10.9,0c1.044,1.138,3.498,3.738,6.41,6.872V4.108h4.155
	c1.912,0,3.343,0.541,4.298,1.622c0.926,1.052,1.385,2.646,1.385,4.777c0,2.167-0.459,3.805-1.385,4.92
	c-0.049,0.063-0.105,0.119-0.16,0.18c0.977,1.049,1.969,2.116,2.967,3.188c0.563-0.471,1.047-0.994,1.445-1.574
	c1.146-1.661,1.719-3.89,1.719-6.698c0-3.158-0.684-5.613-2.051-7.367C17.148,1.052,14.52,0,10.921,0z"/>
</svg>
